{
  "_class": "group",
  "do_objectID": "D5724CA3-D582-48FA-8228-9A7AD6B036C0",
  "exportOptions": {
    "_class": "exportOptions",
    "exportFormats": [
    ],
    "includedLayerIds": [
    ],
    "layerOptions": 0,
    "shouldTrim": false
  },
  "frame": {
    "_class": "rect",
    "constrainProportions": false,
    "height": 2097,
    "width": 97,
    "x": 462,
    "y": 120
  },
  "hasClickThrough": false,
  "isFlippedHorizontal": false,
  "isFlippedVertical": false,
  "isLocked": false,
  "isVisible": true,
  "layerListExpandedType": 0,
  "layers": [
    {
      "class": "shapeGroup",
      "id": "B00AEF80-2B83-4BD6-ACD7-098EB60BCA9A"
    },
    {
      "class": "shapeGroup",
      "id": "6AB6165F-2020-4000-BB82-87F02AD44695"
    },
    {
      "class": "shapeGroup",
      "id": "1C6BBB0D-3333-435B-97DB-2535C986DF83"
    },
    {
      "class": "shapeGroup",
      "id": "D8E5C763-A659-45FD-8B1B-D88A06E50A96"
    },
    {
      "class": "group",
      "id": "B71E21A9-8C25-43E9-BFAF-A0BF61E19E7B"
    }
  ],
  "name": "milestone copy",
  "nameIsFixed": true,
  "resizingConstraint": 63,
  "resizingType": 0,
  "rotation": 0,
  "shouldBreakMaskChain": false,
  "style": {
    "_class": "style",
    "endDecorationType": 0,
    "miterLimit": 10,
    "startDecorationType": 0
  }
}